<?xml version="1.0" encoding="UTF-8" standalone="no"?>
<svg
   xmlns:dc="http://purl.org/dc/elements/1.1/"
   xmlns:cc="http://creativecommons.org/ns#"
   xmlns:rdf="http://www.w3.org/1999/02/22-rdf-syntax-ns#"
   xmlns:svg="http://www.w3.org/2000/svg"
   xmlns="http://www.w3.org/2000/svg"
   xmlns:xlink="http://www.w3.org/1999/xlink"
   xmlns:sodipodi="http://sodipodi.sourceforge.net/DTD/sodipodi-0.dtd"
   xmlns:inkscape="http://www.inkscape.org/namespaces/inkscape"
   width="128mm"
   height="128mm"
   viewBox="0 0 128 128"
   version="1.1"
   id="svg46543"
   inkscape:version="1.0.1 (3bc2e813f5, 2020-09-07)"
   sodipodi:docname="sugaroid_anger.svg">
  <defs
     id="defs46537" />
  <sodipodi:namedview
     id="base"
     pagecolor="#ffffff"
     bordercolor="#666666"
     borderopacity="1.0"
     inkscape:pageopacity="0.0"
     inkscape:pageshadow="2"
     inkscape:zoom="0.98994949"
     inkscape:cx="337.06442"
     inkscape:cy="232.44512"
     inkscape:document-units="mm"
     inkscape:current-layer="layer1"
     inkscape:document-rotation="0"
     showgrid="false"
     inkscape:window-width="1366"
     inkscape:window-height="710"
     inkscape:window-x="0"
     inkscape:window-y="28"
     inkscape:window-maximized="1" />
  <metadata
     id="metadata46540">
    <rdf:RDF>
      <cc:Work
         rdf:about="">
        <dc:format>image/svg+xml</dc:format>
        <dc:type
           rdf:resource="http://purl.org/dc/dcmitype/StillImage" />
        <dc:title></dc:title>
      </cc:Work>
    </rdf:RDF>
  </metadata>
  <g
     inkscape:label="Layer 1"
     inkscape:groupmode="layer"
     id="layer1">
    <g
       id="g7092"
       transform="translate(37.18183,-586.45001)">
      <circle
         inkscape:export-filename="/home/ss/repo/sugaroid/sugaroid/gui/ui/sugaroid_anger.png"
         inkscape:export-ydpi="95.722771"
         inkscape:export-xdpi="95.722771"
         r="61.047852"
         cy="650.71106"
         cx="27.001352"
         id="path826-4-0-8-3-2-8-9"
         style="fill:#ff004b;fill-opacity:1;stroke-width:0.179595" />
      <g
         inkscape:export-ydpi="95.722771"
         inkscape:export-xdpi="95.722771"
         inkscape:export-filename="/home/ss/repo/sugaroid/sugaroid/gui/ui/sugaroid_anger.png"
         id="g1002-7-6-8-8-1-02"
         transform="matrix(0.67879067,0,0,0.67879067,-186.06365,574.56223)">
        <circle
           style="fill:#acac00;fill-opacity:0;stroke-width:0.275591"
           id="path826-3-46-8-6-5-5-7-0"
           cx="313.67911"
           cy="112.18314"
           r="93.677971"
           inkscape:export-xdpi="96"
           inkscape:export-ydpi="96" />
        <circle
           style="fill:#0f3000;fill-opacity:0;stroke-width:0.275591"
           id="path826-3-4-3-4-5-8-1-0"
           cx="314.45605"
           cy="112.44772"
           r="93.677971"
           inkscape:export-xdpi="96"
           inkscape:export-ydpi="96" />
        <path
           style="fill:#d6d6d6;fill-opacity:1;stroke:none;stroke-width:0.264583px;stroke-linecap:butt;stroke-linejoin:miter;stroke-opacity:1"
           d="m 311.64137,52.260417 c -34.784,0.464848 -73.94392,56.493923 -57.45238,87.123513 18.69522,34.72246 100.07698,34.96918 118.30654,0 16.37519,-31.41198 -25.43333,-87.596872 -60.85416,-87.123513 z"
           id="path894-8-5-4-3-8-6-3"
           inkscape:connector-curvature="0"
           sodipodi:nodetypes="aaaa" />
        <path
           style="fill:#ececec;fill-opacity:1;stroke:none;stroke-width:0.238023px;stroke-linecap:butt;stroke-linejoin:miter;stroke-opacity:1"
           d="m 311.37627,52.260212 c -30.2398,0.432739 -64.28385,52.591648 -49.94677,81.105518 16.25286,32.32403 87.00288,32.5537 102.85092,0 14.23593,-29.24222 -22.11071,-81.54618 -52.90415,-81.105518 z"
           id="path894-80-6-8-9-8-2"
           inkscape:connector-curvature="0"
           sodipodi:nodetypes="aaaa" />
        <circle
           style="fill:#0073ff;fill-opacity:1;stroke:none;stroke-width:0.359562"
           id="path896-1-25-3-7-4-4-6"
           cx="285.27753"
           cy="125.68229"
           r="15.024553" />
        <circle
           style="fill:#00002d;fill-opacity:1;stroke:none;stroke-width:0.264583"
           id="path896-12-2-5-4-3-9"
           cx="285.27753"
           cy="125.68229"
           r="11.055803" />
        <circle
           style="fill:#0073ff;fill-opacity:1;stroke:none;stroke-width:0.359562"
           id="path896-1-2-3-2-7-2-1-5"
           cx="340.84003"
           cy="125.41772"
           r="15.024553" />
        <circle
           style="fill:#00002d;fill-opacity:1;stroke:none;stroke-width:0.264583"
           id="path896-4-0-9-4-4-4-0"
           cx="340.46204"
           cy="125.68229"
           r="11.055803" />
      </g>
      <path
         inkscape:export-ydpi="95.722771"
         inkscape:export-xdpi="95.722771"
         inkscape:export-filename="/home/ss/repo/sugaroid/sugaroid/gui/ui/sugaroid_anger.png"
         sodipodi:nodetypes="cccccccccccccccc"
         inkscape:connector-curvature="0"
         id="path1046-9-3-5-5-4-9"
         d="m 45.399918,664.1685 c 2.648803,-6e-5 4.796052,-2.14737 4.79613,-4.7962 0.452269,-1.89771 1.947514,-1.79422 2.500023,-1.81909 1.53222,-6e-5 2.774352,1.24207 2.77427,2.77431 -5.19e-4,0.0116 -0.0019,0.0218 -0.0019,0.0332 l 2.497868,0.16271 -1.542016,-5.26093 -6.712773,-7.98258 -13.062153,0.18135 -5.714822,14.60452 4.220865,-0.68576 c -0.02233,-0.14316 -0.03397,-0.28773 -0.0347,-0.43256 6.2e-5,-1.60279 1.299429,-2.90221 2.9023,-2.90228 1.094632,1.8e-4 2.096028,0.61629 2.589782,1.59332 0.141347,2.54071 2.242323,4.52885 4.787019,4.5298 z"
         style="fill:#ececec;fill-opacity:1;stroke:none;stroke-width:0.454906" />
      <path
         inkscape:export-ydpi="95.722771"
         inkscape:export-xdpi="95.722771"
         inkscape:export-filename="/home/ss/repo/sugaroid/sugaroid/gui/ui/sugaroid_anger.png"
         sodipodi:nodetypes="cccccccccccccccc"
         inkscape:connector-curvature="0"
         id="path1046-9-3-2-2-9-7-4"
         d="m 7.6339404,664.80716 c 2.6487966,-6e-5 4.7960496,-2.14732 4.7961306,-4.79614 0.452258,-1.89783 1.947505,-1.79428 2.500019,-1.81914 1.532221,-7e-5 2.774348,1.24213 2.77426,2.77436 -5.18e-4,0.0116 -0.0015,0.0218 -0.002,0.0332 l 2.497862,0.16278 -1.542016,-5.26101 -6.712764,-7.98248 -13.0621584,0.18132 -5.7148129,14.60454 4.220856,-0.68582 c -0.022336,-0.14309 -0.033936,-0.28769 -0.034691,-0.43251 6.17e-5,-1.60286 1.2994305,-2.90228 2.90229926,-2.90234 1.09463104,2.7e-4 2.09603064,0.61636 2.58978234,1.59331 0.1413453,2.54079 2.2423242,4.52885 4.7870215,4.52989 z"
         style="fill:#ececec;fill-opacity:1;stroke:none;stroke-width:0.454906" />
      <image
         inkscape:export-ydpi="95.722771"
         inkscape:export-xdpi="95.722771"
         inkscape:export-filename="/home/ss/repo/sugaroid/sugaroid/gui/ui/sugaroid_anger.png"
         width="16.725828"
         height="16.725828"
         preserveAspectRatio="none"
         xlink:href="data:image/png;base64,iVBORw0KGgoAAAANSUhEUgAAAHgAAAB4CAYAAAA5ZDbSAAAABHNCSVQICAgIfAhkiAAAIABJREFU eJztnXmcHFd177/nVlXPrhmtlnGwjW0sM5JmRh5bsiQ7DHkQMJCEQExYzBZwAAMJNuBnPiaY9SUP TCCEJCwO+/YwJsQEYgiJHLBnLDMjzaKxZbwIgm1J1q5Zu6vqnvdHVXVX9/TImqXGIz7+fT76SOqu rnvuPXc559yzwFN4Ck/hKTyFRQrJ8uUK0re19emuehcIGpjQDq/fvmt/lm0uZiiY/ks6zjSOfXqI nbCTNQ9c1Nd3LMs2M2Owggxc0v5yxL4f5DzAKgwj+uGO7qHbBDSrthcjejs7PafGv0pUrgE9HfBB 77HCBy7sHurJqt3MGDy4Zf3vWuXbIKdXfPWYqnn1hrv778iq7cWIgUva/lCFrwLNFV8NY+RPO+4a GM6iXZPFSxVMiLwmYW6tMdSaYlNPE+zb93SdXZtF24sRvZ2d9Sq8iZi5tcbgmeLaWitW35RV25kw ePumTY2i0grgiLAy57Iq5+FJ1CkRuo4UmjZk0fZihFsTXAr6bADPCKfVeKzyPEw8HgoX7966pimL tjNhsBsEAupAdAYYEXJGaHAcABSWG+V127q63CzaX0zYvXVNk6JvA1kC0OQ45ERwjaQH3x2dbMyE F5m8FBgH2QsQqlKwigBNrsGJZy0iL2vOH9qaUfuLBvmw5k9FeT6AJ0KTG03yvLWEGsuZyiMjTU1j WbSfCYMv6uvzFe2GSFQeDUMsUGMMTfEqRllh4D07uzpasqBhMWBo07o2Fa4DagCaPQdPBAXGQ4uN n1PhzufccUeQBQ1ZrWCM8O/AIxB1Jm8tQtzJooAhz5dC+GbNWB9/MtDb2bkiNOYjwDMB6p1ocguQ t8p4aJNOP2aEn2ZFR2YMbusevBfkXyHapkeCECXappa6btI5F5V39W9df3lWdDwZ6N68uc7L+TcA LwJwRVjmuTjx6j0eBATJ9ozefji3bHdWtGTGYAGrIl8B9gOMhpbJeBU3uU7xLAJWipWP9W9u/62Q qodbW3N1OnatwlsBI8Ayzy2qiZPWMhrGm7NwUNX5YlbbM2TIYIAHznjmDlFuhWgVH/Wjs7iy08Ba Qf+h75J1z8qSnqwx3Nqa81uca0R4L/G52+K5xcmswFE/TAlXeuvR2pbtWdKU+dm349K17U7o3KZw pgCn1Xg0xoLWpLXsz/v4SYeFOwXe2t49uCtruuYbw12tjYWC+25R3gPUAzS7DstzXnEVHQ9CDhT8 xEb7K4P+YVvP0FCWdGW6ggEuvHN4QEW/AKgCR/yweP7UGsPKnIebqE7Kpap8dWBr22VZ0zWf6L2s 83Q/731ClPcSM3eJ67DcKzHXV+VoECTMDRX+MWvmwgIwGMDzw5uBboj0vyN+saPUO6bMygVswPL1 nZesf/0Dl59XsxD0zRYKsmPL+s2u738D9CogJ0Qrd4XnYYrzFg77AQUb9VpgW1jwvrQQNC6YetK/ uf3FoF8DWgywKrVVA0xYy8FCQN4m2iFjwNeMox9vu3Po4YWi82QxvHntMl/cN6B6DXAGRBLVUtel xXPLBvZYEHKwtDXvs+grLuwZ+u+FoHPBGLytq8tdWjjyUVTfA4gnwuqaHDUlozsFqxzyfcbCIpMV 2AXyqaDg3pr13enJoHvz5rp6xv8X6DXAZYAHkDORKpSetAAToWVfwU8EqwDR97V3D31soa5LF9TA MLRp3WmhMd8Efg+i7fm0nFcyXxJJ28eCkKNBiC3qiuSBu1D5vHHtT9ruHDqykHRDJEQFefdSVd6E 8PtAE0QD2OA4LPNccqZ8OAtW2V/wU7uSfmfS1l91yfbtxxeK7gW3IA1sbbtELd8Czob4vMp5UwgZ Dy1HgoCJ0moGmAT6BG4R9MeFQu6hi/r6/Kxo3dbV5S4PDp0ZhjxX4GUgW4DG5PucEVrcSA2qpD/U iLnjMf0KfRLKqzruGfhlVvRWQ1UGf+eKK5zz/ufBNWKCtYBnjPwG5f627sED87G17Lxk/atF5B+A ZgGWei5LK84tiAZpNLQcC0oCSgwLPCZIjyr/Jeg94uqe3adfcPzlt9wSzpYuBdPX2dlk6ibPNqHb ifB7qG4Fng4U997k0mCJ65Q0gDRxqhzwA0aCmBThN2rNa+fDyUHB9F3WeZprgwtQzhA0wPLL+qXj w8/89wfzlc9PoW64q7XRz3vXgL4ZWB0/M67wMPATo3zX970dc1k527q63GWTh69T4UZiyXO559Jc hckAgSqjYchIYClYWzSWxLACR4A9qrpbkPsUecgYu9eKOaShjOXCwmS+tqbIeK/gG9/xaglpMNhl auzpgjkXYQ2qzwLOAZYTaxka/yNnhEbHodF10lJ/GazCQd/neFBs7rDA29t7Br812/FKxmxp/sh6 hFeg9sUgZwN1gCIcRuV7wIc6egYeTf+ujEoFGdiy/gZUbgRcrfaQcBDV28TIFw57y3pna2br7eys 93L+RxXeATgCLM95NFfZ7hKEqkxYy1homQgtgSpaSV/8KNF2Pg6MCUxo9FnSH0ehFmgg0lvrSK1Q oPheV4RaY2hwDPWOKZMXqtF3yA/SzB1R4fqO7sHPCthpf3gCxIy9UFTfpMIfEC26sm00oUjhqxM0 vGVLT89E5XcADF66/hwbyn8A5yTCgytCXi15q2mhB+BxkG+EBP/Y2TP84GyI7+3sbHZz/ieANxDb bafbrtMEW6JVPRlaJmxEW6ARfTpN56uh8rnEOcETocZEjK11DK5El/MnOpsCVQ4WAkbDInPHBD7g F7y/m81upyCDW9vOt5a3CrwCOC35zohQa4ScGCzKWFi8Wz4C8oKOnoF70v0qInKUkx8BDXWO4fRc DkeiqV+wlpEgZCxeOakX3Ad8wq0J/t/aO+4dnWlHhjevXebjfAx4PfFKXuK6LPOcE66WhHgl2hYD VXxVfGvxVQk0OgstoChawU1DxDQjgivRSs0Zgxf/34gU3/9EyFvloO+nBEI9jpoPesf9z6y9997C DIeEnV0dLTKpr0H4C9Dzks8dERocQ5PrUGsMhmiy780XGIuuHwsCf9TeM3h7eoyK6N/cvkHQ/1BY 7ojQ5Dg0uYYaY4qdzVvLsSBkNLTlaozwfUQ+PBvvwMFL1y+1lg+i8mYgB9DgGJZ73hTV40RIbVWl Pzo9iyRmYvIn+e1MMBqGHPID/JIQeEBFbziaW/6lmR5f8ardRMhfqfA8Yh3biNDoGJpdp8gLS2TL HwlCRoMw3v91r4Hnp02gZaPX29lZ7+T8mwVemXyWzJoWN9LzkpdPhJajQVBUA+K3/VLgRj/v3TrT bWmgra1BG+Ra0PcQ65iJ8aDBmf5cfrIQqnI0CDkWBJR4Kw8q9j0dPUO3zfTMHWhra6CRN6pyHbFl TIhsBS2uS51jysb+eBAybsNU21iUTx6pXXZ9emJNGbcdWzacZay9EdGXAEuTz10RWjyHJY5btLFa VY7HRonUtj2i8BknMjHOyCDR29npuTXBK0T1IwpnQiS9NrkOLZ47reS6kEjcbY74AZO2zOK2zVi9 rm37UN9M37ljy4azHA0/qNFZWwORKtbiuTQ5Dk6sm/pWORJE53yYdoMRDqry5RzhX6/tGT6cfnfV EdvTdXbt0XzjhYK8FuSlwMrkuwbHYXmF1WbSWg75ZUaJUJDvEer/br9ncM9MOxwbQz4CPIdYVfFE aPZcmp5Aks0SpeMpvXL0OJh/9gL/Y2t/ce++mb5z4JK2TSryt6BboLplTIHRIORIuT1AQR5CudU6 4XftZM1AtV3zhCO1ravLbZk8uklE3w36QuLzMWeEFZ5HvVO6jApVOeJHW1Zpx+JOxbxjQ3d//4w7 vqVtlaq+DeQtwKrk8xpjWOI6NMTSbZZItsR8ctaFKU9IUIE+VfnrwHd/MNMjSUEGL2l7cczc8yA6 Dpe6Dks8t3jNZxWOBAHH/CC95+9H5Csays0d2/sfPJHx6aRGaPfWNU2TNvc6kOuJzwdHhBUpb4WY aI4HIYf9oDgQCoNg37qhZ1f3TAYAIovamsfu32KVd4vyPCJ9FYgmWb0TMbpGDEY4aan3REirYRNh rHNbW6kiPgr6RbHy+fbtg4/MtA0FM7Cl/VWofpxYr80ZYbnn0ZBaNFVUL4vIfxLyoV+eeX7PyVjt TnoJKMjQlvWXWZWPAxshUlyXe5FxIo2x0HKwkPLUgN1G9M1t3UM/O9n20hjuam30J70XIfYtIJuJ z6mEhpxE+mqiG7oiiJRLx9P0qfh3qJEuPWkj/Tofq1sVhpR9KvwLmM93dPcPzsZ4ETF3/etQuQlY BlBnDCtyXtnNmq/KgZQtGxhF5B+tY2668Oc7D5xsezPe43Zu6nimmPCTIC8ExAis8DyWVDB50loe L/ipM0PvBfOGtBI+47a7OlrIh89D5EpRLiMlBCadifRaifVZwZFotxEg2dGtRpyxMVMDVXyrhChW qWRqADyIyr+qkW8fzbXsmq31LrIUtl+J6qeImdvgRMxNC5CBKo+XM/eAou/LHQu/PFO9elaH2I6t G55mNPxblJcD4oiwKle+vUB0dj1e8MmXPBl6A7Wv7bx7132zaTdB9+bNdQ1mrF2tXg7muaBrgSXp /lQ1s1bBNM/5wCMI94D8UELd1rZ98NG5XrTEEYafI96WGxyHlTm3TJYIVTlQvi0/qug1HT1Dt85m x5i1lDJ8cetq3/X+CfQlEEm5q2s8asxUJu8vW8ncHrjen1308769s207jd7Ozmav1n8Wyka1erGI XKDoGSDNRPbmE7klKdEKHQUOAg8jMoBlu1jd6YfeI/N1HRlLy19PBKoGp8IfLSbmUCHgaFDcIA4o +rYNPUO3zLbdOYmhOy/pONuI/bLCswHqHMPqigt8iBTz/QU/rSt/dpyGa9NG8fnAd664wrlg7+4l qrJKkaeptacbZKUizQgNYF2sKMiEYkcMchjYL6qPWWP2NdccO/SMO341OZ80AfRubT3Tte7XiTxA qDOG02q8KVpAhdflqKLv6ugZ+sJcdo456xmDm9Z3WiPfIg7RWOq5LPemBg2OhiGPF4JEGp0U5dr2 uwf/aa7tL3Z0b95c16Bjf6fCVRBJy6flyl2VIPL+2JsvJIKpBf1YUMi9f647yJy9Ktu2D/WJ8H5g BCIHs/Fw6lHR6DgsLQlitQjX929u3zjX9hc76hl/pQpXQiTsLfe8KcxVIl030TpEuT0f+jfNx/Ew L26zft67FdEvQySZHgmCSr0RgGa35JSmcKaK3tDb2VmZ0uC3BoOb118Aeh2x/t4SG2gqMRZGFwYx HsXhw5vu2X1oPmiYFwZf1NfnSyCfRGUAojN3pMoqNhKFrBQj/ZXLXS945ZQHfwvQ29npWeQvgTUQ XRo0u1OPrlCVY36YHLIK8rn2uwbvni865s3xvf2ewT0InwYKUBlBV0LOSPpC30P07QMb254xX3Qs Fhiv8GyiywOcOLqw2s3nWByUF2Mn8MV5pWM+X6Y18j3g5xBdgo9VWcUQncd1pa1qrTr6+vmk48lG b2dnvRGuBlogCmOpNVOH2iqMhMXVG4pyc6VP1VwxrwzecEf/URFuJvJjZiQI08b5UqMCLa6bCu2Q V+/c1PHM+aTlyYSbCy4DeS5E9oFKKx9E6suktUyWFsGQ73nfn29a5j02ydXwJ0AvREaOyTg/RyXq HEO9iToucK4Re8V80/JkoLez00PtlcROC03TeGAqpdQWAIjeOl/GnzTmncFre4YPK3wXIrvaaGkL mtLwEtcpEqDCywa2tK2q8ugpBVM32YpEq9eN3Z6qIbmtilm/X3H+LRN6snipVftj4BEBJkObvlUq QoFax1BTOovXAb+bBT0LCRO6l1O0NZclPCsi2Z4TIVSF7Y3No3Oyz09LTxYvrT1uH0LZDtFMTRKw VMKBdLBWTpEX6QKFtGaB3VvXNAn6Aih5ZlTrtxKpksn2bJT/qhaVMB/IZDCjKy35KZScxKpt00pk ly0FgOvWvq2tv5MFTQuBcbw1RDsROWOoMVK131YjLSPu9VFFMktGmmESFr1H4JBA7DRf/TnPCDXG JANxlqPOKZuMRdRsVFieTNzpfMcSH+4Ye/Jh/qGsaMqOwa7uUfRhIHZEr85hA9Q5kszmHCqbsqIp SygYo7GnC1Bb6lMZhGg8ElOuwH2/Pmv90azoyozB6+8cOqbIfRDZp32tri5B5EiXIqTjVMxE29/V sUTRVohzc4qZ9o7P19KRZZV75xIR+UTINE+WiN4LiU9vdauWEhkDku1MhHOP+EuXZUVXVjC+PQ3k DIjUI3ea2Zz4N8cMtsaQ2fYMGUusqjxMlFGm6MBWDU6cfVUBlJVuEFQmEV/0UORpQEsyYWWa81eB oDQQE4I+liVdmTJYrNkLTEDUqekYLJC29jSqyNOypCsLqLWnE7kIRV6d0z0H6avUcStmXq4Fp0Om DA4lPEQUo1sM7ZwOqUHxrNHVWdKVBQyykjgE1pHpXWU0jniMvx/TUDJJI1yiK0OI8ZIA7CiMcxpJ OhoUSf//lDuDNXLyA3jC0JpkqgtM5MLCvPuApZEpg73QnwSdgCj07USQsn9LJunts4SgxeQsTxRR U8oDTphOLZEFMmWwn/MsSDHNzAkJSQ2KWk45NUlFizbXJz8GsoTFafc1upjG6ORgZa5hUZlg0TC4 7Hi2JrPcV5lBdDz553Rm2eKj8fQVcGom89XvE+cJmTLYYlzAhSc+l8rMIEKmkmUWUGQk+feJ5I0o IK4Y91tXcHKZHkfZCll5v1bi9LrC9LohUOFmaxc8VeGcoXqAeCMKT6Tzi2CSUAWh0RjbOM2j84Js 1SRHG1WoVyIh6sTWnaKeHKLm8SzpygJGZB+xR+l0FysQq4TJVFfqrDUrMqUry5dbY1ag0Qp2TrCC EwbHmEDJ1HyXBUIn3IswIkS25hOFAaZikuogPCNLurIVspTfIfbqP1G6hSROVwCEI44TzrvzWdbw fNmHRgVIAtWq3qQQZ88zxcluRMy5WdKVMYPtecTylWemX8FBnLgs+g3/MxY2nHQE+2JBPqg5DPIA RNEK/jTepAC5tK1atPU7V1yRmSSdGYO3dXW5SlSgsuIyoQxCFFlXmvG6ayHzKc8X4kCxHRAdOZN2 ejclz5SuR7FywXn7HszMNJsZg1eNPb5C4gtwRwRvGv8kJUrnn9yPImRaZiZTRLRPJH2a7hx24hQT kSStZxMG503z6JyRGYNDzzkf5MwpM7YCUeKTotfl40Yjp/lTEZ7vDwIPJrvSdE4OBqiJM9cBzQaz JSuaMmOwqmwFGgWKiTMrkfgHJ3keFXaO0jirzLWLAa2/uHc/yM8gOoeni80SIqe8UkIR+5zuzZvr qj48R2TC4OGu1kbiugwJg6utX0sUXRcPgwr6o/lO67CQEFCj9ofEd+Bj5YnTilCgxki6SOfGRjva mgVNmTC4kDdtCp0Qbc+105y/BWvTVTh/TWh+kgU9C4mw1ukB+mBK/8rgilBXijhcaY15URb0ZLRF mz8mzmFVb6bP+5yOPhTlR+33DJyy23OCDXf0H1Xh28R3DsenibCEKPKhyADlpTu2bph3V6V5Z/DQ lnXnCvwRRObJBrd6E/mKKpyh0a/PJg/UYoQJuU1hF1RUG61ArRNl6Iul6XVOGP7RvNMy3y8MkVcC z0y8+6sFPitRspaieVL1NpvPnbLScyXatw8+YqJIfTulrykYoKm0ih2EP+u9rHNePUrnlcH9G9vP R+W1yYuXTFNgYzy06Uxuj6k4n82y/tGTAWPtt4VIp0/SEFdDg1OK/le40An8K+eVjvl60bauLlcd vZp49dY7hroqsbGBKkf8UpZ0Eb7U0d0/4yTaix3rt+/aryqfIqrBGGVonyYxTbPnlGzT8JahTeva 5ouOeWPw8slDzxN4LUSWmmbXnfJyJSovm0o6sp2QWZecWexorj12GyK3QKQXH/arJ6ZpcBwaSovh nMCY6wfa2hrmg4Z5YfCOLRvOsiI3EkvOS+IaQ5UYCUKOl/IwHhHlo7PJt3yq4Bl3/GpSRP8GGIZI 4DqcKq2bQIAWr1RFTeBlNPJGnQf/vTkzeLirtdFgPwBsgiiQrKVKKsOJsKxzIehn7n/6mh/Ntf3F jva7Bu8X4QPAUYgm+VF/ajbiWmNo8VLB8Mp7Bza3//5c25/TDBlubc0FS9z3qnAD4DkinJbzpqze Khlnv+cRXlVZQGI+sK2ry60f39fsSd1pjglPt6qrBVYJsgShQUUdrCii44qMGDhsxewz1u71PW9v c+Oxw/MdbR+X8rtBhfcRXQez0vPKsuVDdE49nvfTAugukNd29AzsnG3bs2bwtq4ud1n+8NsUPgo0 CFH9wcrVW7BRcuvUuXuPWnPlhu39D8y27TQU5J6NFyyrc721FnMx6MUoa4DTiXJI1/DEKYV9opTC j4M+hJqdCNvFav/9Z67ZOx/hnXdv2rSkxkz8fVpOWZVz02cvEAXp7c+nx0u6DfaNbT1Du2fT7qwY /MDl59WMHam7GuEDIEugepnYKsy9Xwyvn49Ufbu3rmnKa83FankhwnOIst2WRUScTFLw9HlY8Vwe 4dcg3Vh+IEbvbO8enJOvWP/m9jMU/YLA5RCZK1dWSaQ+aS3782UlEX6OkbfOpujYjBnc29nZ7NT4 14nyTmKPySbXYWWqZj0k2d7LSrbvsap/fuHdQz+daZtpDF/currgOX8gKq8gqh1R5pUolOoPunFY qkOc1j8VFBal9VdCjT0wVAlix4OoHF7Z4OSBYZBbQoLvXtgz/JBM7zh5QvRtXnuewflniTMKOSKs zE2tHD4eRtnyi5l4oA/sX8y0uMmMGNy/sf18jH4Q4U+I/Z2XuFEdpbS9eTy0HPTLztw9iLylo3tg 1pcJcZmdl4P8GbA+aR9KhTnq4sIcXlyYI5lwJ7OCI3fXyNUmby0T8d8Vao2CPCSqX8fy1dnUhIIo C22IfC5hshFhuedOMQyNhZYD5YnUHxZ4n1/wvnuyhqGTYnBU8q7wEkHeS5xFRoBmz2VZWUrCqWV1 BO5DeHt79+B/nUxblejevLmujtEXG+QajVZsSdQ0EuuQhtw8ldZJfp9E4k/YyOqWDy0hxQFT0PvA fHrS1n5rNi5G/Rvbz8flM6g+L2m3xXNZ6jqYEy4WPY5ws4TyyZNRMU/I4AcuP69m5GjdJQauBnkx 8ZacZE9Nz7jEQnU8CNNnX48V85cbuvt/MbPuR+i7ZN2zjJjrBf6EogN9pFI0uQ71C1AcC6LtfNJW rRdYUOF2MB/p6O7vnem2PXTxuqeHrtwE8jLiiVutstzU6qYoaK+I/K2bC/7tRFVfq47O3Zs2LamV yeeK8ApFn0uqfE2dY1jmuem7TMZjHTclTIWCfE8ce33bnUMPz6TTEKlfhWbnTwR5P3G+ZYh07GbX odExZbN8IZDEOCdFOctyfwm/wcr/GZf6r8zUYWF489plvpgbUHkL8SSuVpQzqSx3PCirgDahcIeB r7mEP66mdk4ZpR1bNpwlGt4k8AekClAlWVOTuvWJs/qxIORYEKZDT46CflprnE9uuKN/xumBtm+8 YHmNW3MdqlcTC1BO3Haz6yzIij0RhCg0ZSSMDBYpSXdShS/l/OBDM61huKfr7Npj+ebXgf4VcWW5 akU5lSg7/NFycy9Eat7PQN5TqTOXjVZUlHLJ5xJdDSLGNroOTY5TLC8batxQEKalZFAZUGNvPJpb /sPZFI+KK5B/nOg+2YHoynGZ56bzSy8aFGxkX04ZJlThdge9dqZ6q4IMbm27FMuHNarOYiBazS1x KQQn5lYQV30dCcO0IAvoT4JC7uUX9fUdSz4pY/COresucqy5XeMC0S2uQ2OcDjdh7IS1HKvcotDj KvINx+hNs9mSAXZu6egQtZ8BtiaENbsuS0+iEngayZNp6Vi1lDZh6vPl6tNMhTSrcCwI4joVyaf6 C2v06gvv2jXjO+7hi1tX+473TkSvIk5lIURHY7PrUu+UHBj92LHvSOkS4yjI86cv8b51/Qutle8D Xr1jWJ3LYaSU+nYkDCvzTgYId4vl4+7x4PbZlDMHiKqv6OeADqguxE2HtNQbxLqsn+i1cQhJovNW XuSIxKXeJcltFenPnknK4p04IjKN0TDkYCF1W6QyoEaumo2Aua2ry22ZOPgcMeZ6IlXKhSQrYKnE uytCqMrekuVrFCuXd2wfuDM9PkXsuHRtuwmdnwCrhMilxCD4atPJuyCq67NbkM+HrvPNmRRLrET/ 5vaNsXWnDaIjYUUV6041hKrkbeRXPWltMUIiYXjVTlZBpcUrYXhOIr26NqWGnQgToeVAWqWZA5Mh FsAwrwLeCvKshMQkviknQhhL+MlPxPKCtPpURnJvZ6fn5fyPKlxLfAZWWHRC4D6Qb1gx37qwe+ev Z0N4gnhb/hLxys0ZYaXnTXveJpLspI3LvoaWQhwVUUFnQvokMBEHlE+gFMpfJzVgG0DqiYLkcpUv SCxjNXGp+/pYFpkOkzYyTuRLvt59YuR1szEzJhjY2PYMdeQ1oK8CzqM6b0ZU9F0buoe+kP7tFEp7 OzubvZx/NfCauAagAY6BDqPmXxB+0N4z8NhsTXUJBi9df4618hWUSyFi7qqcV9WHC6KzbtyGjARh XM93yiNjwG9Adit6H6q/RPVRHPeAY8LjgbqTGIrWHycMxfi2JhSnTl1pNtauVtGzEM5HpVUiz5TV VDDdjRndNE2hDZhaeVXgp1jeMJe7bwXZuWXDmcbayxF9kUCbwtJIwpAHVfl06HvfrLRwVZ2KCmbn 1g2r0eAsExoH5fEgdB+5qK9vvNrzM0VvZ+cKN+d/DngpRNvyqlz1lZuoBsdi1SCVRAzgCLBDlW3i SLfF3G8nzYG5+HcpSF9nZ11NTf70UJ02VLtAno3oGihl/3FEaIwFn2orurJeo8BXakz+HRfcdf/I lIdniD1dZ9eOFhrPCKy72mADDHvaugcPVFt0C65UDre25vwW569ReSeOq7PfAAAEsklEQVRgpitN C9FKOOqHjJXXfQhB71eR7xvLbYyzq31wMLOcHgoyuKVtpVXdYpArFJ4HrEy+d2NtY4k7tS5SRb1G X+DGtp7B/7uQLkoLzuD+LevfgMrfE98hr8hNrSCeqB4V7qYhMKDoF42Vf52Per4zRW9np+fUhB3G 2tercAUpRtc7huWeO6W87tEg5FBcUVTgkBXzug3d/T9cKJoXlME7tq67yFhzC3A2RMb15aUqaEBV 4wHAHlX9bOjlvpZF6ZmZYltXl9uSP7hR1FyL8CLirduL1bu0p4YCBwo+x2O3WYU+E3LFbG+iZooF Y/DgpeuX2lC+CrwYohl/WkWt4YnQctAvu0OeFPieoH+zvmdo10Kv2CfCQFtbA/W80grXC5wLkYq1 1I08W9IXMfvKvTT+wTvmXztbu8FMsGD2Pw3ljcALIJrplXfIo2HI/oKfZu6jolzLGH/e1jM0tNiY C9A+ODjWfvfgzYJcAfwYsFbhsB+UeU+6xdqFRXeD1xRanMsXgsYFWcH9m9s3gP4LcFa1c3ckCDmY ukNW6FP0XRt6hn62GBlbDUOb1p0WGudDoG8AvOR+d1lqJR/yA44kHpXCnQIvm6sb0BMh8xX8wOXn 1Sj6TuAsiO4702fUaFjOXIGfOuiVF/YM/fepwlyIIhlqzeS7BT4FFBQ46gdlLrLNrlMSwpQtirwm a7oyZ/DoscbnCvwxxCqFVwqZnAgtBwtBOrzyB6E4b5qtB+GTjQvuun/EL3gfUPg04CtRZe9EYExU qnhFG1SvGtqy7tRNo7R765omY+3VpAo1JtafglUOlody/KcV5x1zNX8+2bior2+8zuQ/JMqXAbUK hwpBsRBWQ+yJEmNNqM6rs6QnUwbnw5rnqNAFkSkyKbOaCCIpgWqntc5fnOrMTXDBXfePuGHwftD/ gOha77AfEBIZkcvjtvRVWRbIzozBw62tOYVXkrjWOqUyq8fDMKXn6l4R3n3h9p33ZkXLk4G1v7h3 nzV6A/ArgPEwZDT2V6uLIy/jvet8deWlWdGRGYMnl5hzES6D6OxpjM+evNW04OEr8rHZelwudkQX /voJ4vP4aFz2PnLHKV7cC+hLejs7m0/wqlkjMwa7YjqA1cmMTRJ/HQvS567+W97WzWvN+sWGoJD7 GvCfEMkdI8kqNoZcyax5gambPDuL9jNjsFXOIaowU0yjlNzjxtiv6E2nYtrCmeCivr5jKuYzRLFP jISRfd0RIVcqBrbECZ1MioFlJ2RJ6XI9Sa+bzqqD6Hc6enbNOUbpVIAZtXeI8jOIVvFY7PaU8kS1 oeqMnRRPqu0sXgogRnpBjwMcDwP25guMpLLqiJVvLOS12ZOJ9sHBMTXyLSL3Vg77AfvyhXSJ932e 0UwuHzJjcLN3rEdFvkGsC46HtjRjVW/1fW9HVm0vRhhjf6jCv0PkSzZayvBnVfjmuu5dpxaDn3HH rybDvPd+hU8AjwBjCAcFvgLmw79tWXWeCG13Dh1xjF4j8E3giICPcFDh73MafiKr3Szzy4ZtXV3u 0vEj5xjXrg6MPWYnah+YL9efUxG9nZ31Tk241rHhitA4exubR++b74wCT+EpPIWn8BROCfx/pDUr 2gGzGt4AAAAASUVORK5CYII= "
         id="image2623"
         x="42.363945"
         y="629.08472" />
    </g>
  </g>
</svg>
