<?xml version="1.0" encoding="UTF-8" standalone="no"?>
<svg
   xmlns:dc="http://purl.org/dc/elements/1.1/"
   xmlns:cc="http://creativecommons.org/ns#"
   xmlns:rdf="http://www.w3.org/1999/02/22-rdf-syntax-ns#"
   xmlns:svg="http://www.w3.org/2000/svg"
   xmlns="http://www.w3.org/2000/svg"
   xmlns:sodipodi="http://sodipodi.sourceforge.net/DTD/sodipodi-0.dtd"
   xmlns:inkscape="http://www.inkscape.org/namespaces/inkscape"
   width="128mm"
   height="128mm"
   viewBox="0 0 128 128"
   version="1.1"
   id="svg14480"
   inkscape:version="1.0.1 (3bc2e813f5, 2020-09-07)"
   sodipodi:docname="sugaroid-osvg.svg">
  <defs
     id="defs14474" />
  <sodipodi:namedview
     id="base"
     pagecolor="#ffffff"
     bordercolor="#666666"
     borderopacity="1.0"
     inkscape:pageopacity="0.0"
     inkscape:pageshadow="2"
     inkscape:zoom="0.64"
     inkscape:cx="214.64036"
     inkscape:cy="286.36912"
     inkscape:document-units="mm"
     inkscape:current-layer="layer1"
     inkscape:document-rotation="0"
     showgrid="false"
     inkscape:window-width="1366"
     inkscape:window-height="710"
     inkscape:window-x="0"
     inkscape:window-y="28"
     inkscape:window-maximized="1" />
  <metadata
     id="metadata14477">
    <rdf:RDF>
      <cc:Work
         rdf:about="">
        <dc:format>image/svg+xml</dc:format>
        <dc:type
           rdf:resource="http://purl.org/dc/dcmitype/StillImage" />
        <dc:title></dc:title>
      </cc:Work>
    </rdf:RDF>
  </metadata>
  <g
     inkscape:label="Layer 1"
     inkscape:groupmode="layer"
     id="layer1">
    <circle
       inkscape:export-filename="/home/ss/repo/sugaroid/sugaroid/gui/ui/sugaroid_o.png"
       inkscape:export-ydpi="96"
       inkscape:export-xdpi="96"
       r="61.047852"
       cy="64.212952"
       cx="64.12841"
       id="path826-4-87"
       style="fill:#ff004b;fill-opacity:1;stroke-width:0.179595" />
    <g
       inkscape:export-ydpi="96"
       inkscape:export-xdpi="96"
       inkscape:export-filename="/home/ss/repo/sugaroid/sugaroid/gui/ui/sugaroid.png"
       id="g1002-05"
       transform="matrix(0.67879066,0,0,0.67879066,-148.93655,-11.935863)">
      <circle
         inkscape:export-filename="/home/ss/repo/sugaroid/sugaroid/gui/ui/sugaroid_o.png"
         style="fill:#acac00;fill-opacity:0;stroke-width:0.275591"
         id="path826-3-46-81"
         cx="313.67911"
         cy="112.18314"
         r="93.677971"
         inkscape:export-xdpi="96"
         inkscape:export-ydpi="96" />
      <circle
         inkscape:export-filename="/home/ss/repo/sugaroid/sugaroid/gui/ui/sugaroid_o.png"
         style="fill:#0f3000;fill-opacity:0;stroke-width:0.275591"
         id="path826-3-4-7"
         cx="314.45605"
         cy="112.44772"
         r="93.677971"
         inkscape:export-xdpi="96"
         inkscape:export-ydpi="96" />
      <path
         inkscape:export-ydpi="96"
         inkscape:export-xdpi="96"
         inkscape:export-filename="/home/ss/repo/sugaroid/sugaroid/gui/ui/sugaroid_o.png"
         style="fill:#d6d6d6;fill-opacity:1;stroke:none;stroke-width:0.264583px;stroke-linecap:butt;stroke-linejoin:miter;stroke-opacity:1"
         d="m 311.64137,52.260417 c -34.784,0.464848 -73.94392,56.493923 -57.45238,87.123513 18.69522,34.72246 100.07698,34.96918 118.30654,0 16.37519,-31.41198 -25.43333,-87.596872 -60.85416,-87.123513 z"
         id="path894-8-53"
         inkscape:connector-curvature="0"
         sodipodi:nodetypes="aaaa" />
      <path
         inkscape:export-ydpi="96"
         inkscape:export-xdpi="96"
         inkscape:export-filename="/home/ss/repo/sugaroid/sugaroid/gui/ui/sugaroid_o.png"
         style="fill:#ececec;fill-opacity:1;stroke:none;stroke-width:0.238023px;stroke-linecap:butt;stroke-linejoin:miter;stroke-opacity:1"
         d="m 311.37627,52.260212 c -30.2398,0.432739 -64.28385,52.591648 -49.94677,81.105518 16.25286,32.32403 87.00288,32.5537 102.85092,0 14.23593,-29.24222 -22.11071,-81.54618 -52.90415,-81.105518 z"
         id="path894-15"
         inkscape:connector-curvature="0"
         sodipodi:nodetypes="aaaa" />
      <circle
         inkscape:export-ydpi="96"
         inkscape:export-xdpi="96"
         inkscape:export-filename="/home/ss/repo/sugaroid/sugaroid/gui/ui/sugaroid_o.png"
         style="fill:#0073ff;fill-opacity:1;stroke:none;stroke-width:0.359562"
         id="path896-1-9"
         cx="285.27753"
         cy="125.68229"
         r="15.024553" />
      <circle
         inkscape:export-ydpi="96"
         inkscape:export-xdpi="96"
         inkscape:export-filename="/home/ss/repo/sugaroid/sugaroid/gui/ui/sugaroid_o.png"
         style="fill:#00002d;fill-opacity:1;stroke:none;stroke-width:0.264583"
         id="path896-79"
         cx="285.27753"
         cy="125.68229"
         r="11.055803" />
      <circle
         inkscape:export-ydpi="96"
         inkscape:export-xdpi="96"
         inkscape:export-filename="/home/ss/repo/sugaroid/sugaroid/gui/ui/sugaroid_o.png"
         style="fill:#0073ff;fill-opacity:1;stroke:none;stroke-width:0.359562"
         id="path896-1-2-89"
         cx="340.84003"
         cy="125.41772"
         r="15.024553" />
      <circle
         inkscape:export-ydpi="96"
         inkscape:export-xdpi="96"
         inkscape:export-filename="/home/ss/repo/sugaroid/sugaroid/gui/ui/sugaroid_o.png"
         style="fill:#00002d;fill-opacity:1;stroke:none;stroke-width:0.264583"
         id="path896-4-4"
         cx="340.46204"
         cy="125.68229"
         r="11.055803" />
      <ellipse
         inkscape:export-ydpi="96"
         inkscape:export-xdpi="96"
         inkscape:export-filename="/home/ss/repo/sugaroid/sugaroid/gui/ui/sugaroid_o.png"
         ry="7.2193451"
         rx="7.4839282"
         style="fill:#00002d;fill-opacity:1;stroke:none;stroke-width:0.175908"
         id="path896-79-2"
         cx="313.45569"
         cy="151.21457" />
    </g>
  </g>
</svg>
